%YAML 1.1
%TAG !u! tag:unity3d.com,2011:
--- !u!162 &1
EditorUserSettings:
  m_ObjectHideFlags: 0
  serializedVersion: 4
  m_ConfigSettings:
    RecentlyUsedScenePath-0:
      value: 22424703114646680e0b0227036c6c111b07142f1f2b233e2867083debf42d
      flags: 0
    RecentlyUsedScenePath-1:
      value: 22424703114646680e0b0227036c771f0212141501292f3e120f113cedf27a2decee22f0
      flags: 0
    RecentlyUsedScenePath-2:
      value: 224247031146467a01023f2909054d1513583b25202c660338270e36f6af1737eee376daf2342c392d4cfa320d2a18
      flags: 0
    RecentlyUsedScenePath-3:
      value: 224247031146467a01023f2909054d1513583b25202c661e242e1527adc33b34e6a718e0e0322b722c0ce6281d
      flags: 0
    RecentlyUsedScenePath-4:
      value: 224247031146467a01023f2909054d15135836232b2032700026123dc0f5262bf6a818e0e0322b7c140de032441c142de11e471ef8021e12
      flags: 0
    vcSharedLogLevel:
      value: 0d5e400f0650
      flags: 0
  m_VCAutomaticAdd: 1
  m_VCDebugCom: 0
  m_VCDebugCmd: 0
  m_VCDebugOut: 0
  m_SemanticMergeMode: 2
  m_VCShowFailedCheckout: 1
  m_VCOverwriteFailedCheckoutAssets: 1
  m_VCProjectOverlayIcons: 1
  m_VCHierarchyOverlayIcons: 1
  m_VCOtherOverlayIcons: 1
  m_VCAllowAsyncUpdate: 1
